{
  "items":[
    {
      "id": 1,
      "skillName": "React Native",
      "category": "Library",
      "categoryName": "Framework / Library",
      "logoUrl": "https://i.imgur.com/O86gY70.png",
      "iconType": "MaterialCommunityIcons",
      "iconName": "react",
      "percentageProgress": "50%"
    },
    {
      "id": 2,
      "skillName": "Laravel",
      "category": "Library",
      "categoryName": "Framework / Library",
      "logoUrl": "https://i.imgur.com/tokBRKs.png",
      "iconType": "MaterialCommunityIcons",
      "iconName": "laravel",
      "percentageProgress": "100%"
    },
    {
      "id": 3,
      "skillName": "JavaScript",
      "category": "Language",
      "categoryName": "Bahasa Pemrograman",
      "logoUrl": "https://i.imgur.com/HLxsRPg.png",
      "iconType": "MaterialCommunityIcons",
      "iconName": "language-javascript",
      "percentageProgress": "30%"
    },
    {
      "id": 4,
      "skillName": "Python",
      "category": "Language",
      "categoryName": "Bahasa Pemrograman",
      "logoUrl": "https://i.imgur.com/MoNAv0W.png",
      "iconType": "MaterialCommunityIcons",
      "iconName": "language-python",
      "percentageProgress": "70%"
    },
    {
      "id": 5,
      "skillName": "Git",
      "category": "Technology",
      "categoryName": "Teknologi",
      "logoUrl": "https://i.imgur.com/CSSUxcN.png",
      "iconType": "MaterialCommunityIcons",
      "iconName": "git",
      "percentageProgress": "75%"
    },
    {
      "id": 6,
      "skillName": "Gitlab",
      "category": "Technology",
      "categoryName": "Teknologi",
      "logoUrl": "https://i.imgur.com/Ics0mdH.png",
      "iconType": "MaterialCommunityIcons",
      "iconName": "gitlab",
      "percentageProgress": "60%"
    }
  ]
}